…
``` r
data <- read_csv("../../../558 data science for statistician/HW/module 8/SeoulBikeData.csv", col_names=TRUE, locale=locale(encoding="latin1")) 
data_convention <- data %>% rename(Rented_count=`Rented Bike Count`, Wind_speed=`Wind speed (m/s)`,
                                   Dew_temperature=`Dew point temperature(°C)`,
                                   Temperature=`Temperature(°C)`,
                                   Humidity=`Humidity(%)`, Radiation=`Solar Radiation (MJ/m2)`,
                                   Functioning_day=`Functioning Day`,
                                   Visibility=`Visibility (10m)`, Rainfall=`Rainfall(mm)`,
                                   Snowfall=`Snowfall (cm)`)
data$Date <- as.Date(data_convention$Date, "%d/%m/%Y")
data_convention
```

    ## # A tibble: 8,760 x 14
    ##    Date     Rented_count  Hour
    ##    <chr>           <dbl> <dbl>
    ##  1 01/12/2~          254     0
    ##  2 01/12/2~          204     1
    ##  3 01/12/2~          173     2
    ##  4 01/12/2~          107     3
    ##  5 01/12/2~           78     4
    ##  6 01/12/2~          100     5
    ##  7 01/12/2~          181     6
    ##  8 01/12/2~          460     7
    ##  9 01/12/2~          930     8
    ## 10 01/12/2~          490     9
    ## # ... with 8,750 more rows,
    ## #   and 11 more variables:
    ## #   Temperature <dbl>,
    ## #   Humidity <dbl>,
    ## #   Wind_speed <dbl>,
    ## #   Visibility <dbl>,
    ## #   Dew_temperature <dbl>, ...
…
